module gitlab.com/sitijumatun/fibonacci

go 1.20

require (
	github.com/go-ozzo/ozzo-validation/v4 v4.3.0 // indirect
	github.com/golang/protobuf v1.5.2 // indirect
	golang.org/x/net v0.8.0 // indirect
	golang.org/x/sys v0.6.0 // indirect
	golang.org/x/text v0.8.0 // indirect
	google.golang.org/genproto v0.0.0-20230110181048-76db0878b65f // indirect
	google.golang.org/grpc v1.54.0 // indirect
	google.golang.org/protobuf v1.28.1 // indirect
)
